{
  "project_info": {
    "project_number": "1054691853574",
    "firebase_url": "https://dialogflowrnd.firebaseio.com",
    "project_id": "dialogflowrnd",
    "storage_bucket": "dialogflowrnd.appspot.com"
  },
  "client": [
    {
      "client_info": {
        "mobilesdk_app_id": "1:1054691853574:android:67b8f8b882e24e80",
        "android_client_info": {
          "package_name": "com.example.yeasin.dialogflowrnd"
        }
      },
      "oauth_client": [
        {
          "client_id": "1054691853574-dhpld0idpjn8fqvun1n4f5df02k1qpar.apps.googleusercontent.com",
          "client_type": 1,
          "android_info": {
            "package_name": "com.example.yeasin.dialogflowrnd",
            "certificate_hash": "e528d8e1f47e09d5fe05904bf37f06ba9232a841"
          }
        },
        {
          "client_id": "1054691853574-k3rmnqf7u0cbr2jieu2ifegq1hs2potk.apps.googleusercontent.com",
          "client_type": 3
        }
      ],
      "api_key": [
        {
          "current_key": "AIzaSyD2x_VCt05epWckByrgQm48Gj-gauxl76Q"
        }
      ],
      "services": {
        "analytics_service": {
          "status": 1
        },
        "appinvite_service": {
          "status": 2,
          "other_platform_oauth_client": [
            {
              "client_id": "1054691853574-k3rmnqf7u0cbr2jieu2ifegq1hs2potk.apps.googleusercontent.com",
              "client_type": 3
            }
          ]
        },
        "ads_service": {
          "status": 2
        }
      }
    }
  ],
  "configuration_version": "1"
}